{
    "KPlugin": {
        "Description": "Configuration of GnuPG System options",
        "Description[bg]": "Настройки на  GnuPG",
        "Description[ca@valencia]": "Configureu les opcions del sistema GnuPG",
        "Description[ca]": "Configuració de les opcions del sistema GnuPG",
        "Description[cs]": "Nastavení možností GnuPG",
        "Description[de]": "Einrichtung der Optionen zum GnuPG-System",
        "Description[en_GB]": "Configuration of GnuPG System options",
        "Description[eo]": "Agordo de GnuPG-Sistemopcioj",
        "Description[es]": "Configuración de las opciones del sistema GnuPG",
        "Description[eu]": "GnuPG Sistemaren aukeren konfigurazioa",
        "Description[fi]": "GnuPG-järjestelmävalintojen asetukset",
        "Description[fr]": "Configuration des options pour le système « GnuPG »",
        "Description[gl]": "Configuración das opcións do Sistema GnuPG.",
        "Description[he]": "הגדרת אפשרויות מערכת GnuPG",
        "Description[ia]": "Configuration de optiones de Systema GnuPG",
        "Description[ie]": "Configuration de parametres de sistema de GnuPG",
        "Description[it]": "Configurazione delle opzioni del sistema GnuPG",
        "Description[ka]": "GnuPG-ის სისტემის პარამეტრების გამართვა",
        "Description[ko]": "GnuPG 시스템 옵션 설정",
        "Description[nl]": "GnuPG-systeemopties configureren",
        "Description[pl]": "Ustawienia systemu GnuPG",
        "Description[pt]": "Configuração das opções do Sistema GnuPG",
        "Description[pt_BR]": "Configuração das opções do sistema GnuPG",
        "Description[ru]": "Настройка параметров системы GnuPG",
        "Description[sk]": "Nastavenie volieb systému GnuPG",
        "Description[sl]": "Konfiguracija možnosti sistema GnuPG",
        "Description[sv]": "Anpassning av alternativ för GnuPG-system",
        "Description[tr]": "GnuPG Sistemi seçenekleri yapılandırması",
        "Description[uk]": "Налаштування параметрів системи GnuPG",
        "Description[x-test]": "xxConfiguration of GnuPG System optionsxx",
        "Description[zh_CN]": "GnuPG 系统选项的配置",
        "Description[zh_TW]": "設定 GnuPG 系統選項",
        "Icon": "document-encrypt",
        "Name": "GnuPG System",
        "Name[bg]": "Система GnuPG",
        "Name[ca@valencia]": "Sistema GnuPG",
        "Name[ca]": "Sistema GnuPG",
        "Name[cs]": "Systém GnuPG",
        "Name[de]": "GnuPG System",
        "Name[en_GB]": "GnuPG System",
        "Name[eo]": "GnuPG-Sistemo",
        "Name[es]": "Sistema GnuPG",
        "Name[eu]": "GnuPG Sistema",
        "Name[fi]": "GnuPG-järjestelmä",
        "Name[fr]": "Système « GnuPG »",
        "Name[gl]": "Sistema GnuPG",
        "Name[he]": "מערכת GnuPG",
        "Name[ia]": "Systema GnuPG",
        "Name[ie]": "Sistema GnuPG",
        "Name[it]": "Sistema GnuPG",
        "Name[ka]": "GnuPG სისტემა",
        "Name[ko]": "GnuPG 시스템",
        "Name[nl]": "GnuPG-systeem",
        "Name[pl]": "System GnuPG",
        "Name[pt]": "Sistema GnuPG",
        "Name[pt_BR]": "Sistema GnuPG",
        "Name[ru]": "Система GnuPG",
        "Name[sk]": "GnuPG systém",
        "Name[sl]": "Sistem GnuPG",
        "Name[sv]": "GnuPG-system",
        "Name[tr]": "GnuPG Sistemi",
        "Name[uk]": "Система GnuPG",
        "Name[x-test]": "xxGnuPG Systemxx",
        "Name[zh_CN]": "GnuPG 系统",
        "Name[zh_TW]": "GnuPG 系統"
    },
    "NoDisplay": "false",
    "X-DocPath": "kleopatra/configuration.html#configuration-gnupgsystem"
}
